dump.vcd
$date
	Mon Jun 10 15:01:25 2024
$end
$version
	Icarus Verilog
$end
$timescale
	1ps
$end
$scope module UART_TB $end
$var wire 1 ! Rx_Done $end
$var wire 8 " Rx_Byte [7:0] $end
$var reg 1 # Clock $end
$var reg 8 $ Tx_Byte [7:0] $end
$var reg 1 % Tx_Ready $end
$var reg 1 & reset_n $end
$var integer 32 ' ii [31:0] $end
$scope module xUART $end
$var wire 1 # clk $end
$var wire 1 ( i_Rx_Data $end
$var wire 8 ) i_Tx_Byte [7:0] $end
$var wire 1 % i_Tx_Ready $end
$var wire 1 * o_Tx_Data $end
$var wire 1 & reset_n $end
$var wire 1 + w_Tx_Data_to_Rx $end
$var wire 1 , w_Tx_ClkTick $end
$var wire 1 - w_Rx_ClkTick $end
$var wire 1 . o_Tx_Done $end
$var wire 1 / o_Tx_Active $end
$var wire 1 ! o_Rx_Done $end
$var wire 8 0 o_Rx_Byte [7:0] $end
$scope module xUART_RX $end
$var wire 1 + i_Rx_Data $end
$var wire 1 & reset_n $end
$var wire 1 - clk $end
$var reg 8 1 o_Rx_Byte [7:0] $end
$var reg 1 ! o_Rx_Done $end
$var reg 3 2 r_Bit_Index [2:0] $end
$var reg 5 3 r_Clk_Count [4:0] $end
$var reg 8 4 r_Rx_Data [7:0] $end
$var reg 3 5 r_State [2:0] $end
$upscope $end
$scope module xUART_TX $end
$var wire 8 6 i_Tx_Byte [7:0] $end
$var wire 1 % i_Tx_Ready $end
$var wire 1 & reset_n $end
$var wire 1 , clk $end
$var reg 1 / o_Tx_Active $end
$var reg 1 7 o_Tx_Data $end
$var reg 1 . o_Tx_Done $end
$var reg 3 8 r_Bit_Index [2:0] $end
$var reg 3 9 r_State [2:0] $end
$var reg 8 : r_Tx_Byte [7:0] $end
$upscope $end
$scope module xbaudRateGenerator $end
$var wire 1 # clk $end
$var wire 1 & reset_n $end
$var reg 1 - o_Rx_ClkTick $end
$var reg 1 , o_Tx_ClkTick $end
$var reg 3 ; r_Rx_Counter [2:0] $end
$var reg 7 < r_Tx_Counter [6:0] $end
$upscope $end
$upscope $end
$upscope $end
$enddefinitions $end
#0
$dumpvars
b0 <
b0 ;
b0 :
b0 9
b0 8
17
b0 6
b0 5
b0 4
b0 3
b0 2
b0 1
b0 0
0/
0.
0-
0,
1+
1*
b0 )
z(
bx '
0&
0%
b0 $
0#
b0 "
0!
$end
#5
1&
#20
b1 <
b1 ;
1#
#40
0#
#60
b10 ;
b10 <
1%
b1 $
b1 )
b1 6
b0 '
1#
#80
0#
#100
b11 <
b11 ;
1#
#120
0#
#140
b100 ;
b100 <
1#
#160
0#
#180
b101 <
b101 ;
1#
#200
0#
#220
b0 ;
1-
b110 <
1#
#240
0#
#260
b111 <
b1 ;
1#
#280
0#
#300
b10 ;
b1000 <
1#
#320
0#
#340
b1001 <
b11 ;
1#
#360
0#
#380
b100 ;
b1010 <
1#
#400
0#
#420
b1011 <
b101 ;
1#
#440
0#
#460
b0 ;
0-
b1100 <
1#
#480
0#
#500
b1101 <
b1 ;
1#
#520
0#
#540
b10 ;
b1110 <
1#
#560
0#
#580
b1111 <
b11 ;
1#
#600
0#
#620
b100 ;
b10000 <
1#
#640
0#
#660
b10001 <
b101 ;
1#
#680
0#
#700
b0 ;
1-
b10010 <
1#
#720
0#
#740
b10011 <
b1 ;
1#
#760
0#
#780
b10 ;
b10100 <
1#
#800
0#
#820
b10101 <
b11 ;
1#
#840
0#
#860
b100 ;
b10110 <
1#
#880
0#
#900
b10111 <
b101 ;
1#
#920
0#
#940
b0 ;
0-
b11000 <
1#
#960
0#
#980
b11001 <
b1 ;
1#
#1000
0#
#1020
b10 ;
b11010 <
1#
#1040
0#
#1060
b11011 <
b11 ;
1#
#1080
0#
#1100
b100 ;
b11100 <
1#
#1120
0#
#1140
b11101 <
b101 ;
1#
#1160
0#
#1180
b0 ;
1-
b11110 <
1#
#1200
0#
#1220
b11111 <
b1 ;
1#
#1240
0#
#1260
b10 ;
b100000 <
1#
#1280
0#
#1300
b100001 <
b11 ;
1#
#1320
0#
#1340
b100 ;
b100010 <
1#
#1360
0#
#1380
b100011 <
b101 ;
1#
#1400
0#
#1420
b0 ;
0-
b100100 <
1#
#1440
0#
#1460
b100101 <
b1 ;
1#
#1480
0#
#1500
b10 ;
b100110 <
1#
#1520
0#
#1540
b100111 <
b11 ;
1#
#1560
0#
#1580
b100 ;
b101000 <
1#
#1600
0#
#1620
b101001 <
b101 ;
1#
#1640
0#
#1660
b0 ;
1-
b101010 <
1#
#1680
0#
#1700
b101011 <
b1 ;
1#
#1720
0#
#1740
b10 ;
b101100 <
1#
#1760
0#
#1780
b101101 <
b11 ;
1#
#1800
0#
#1820
b100 ;
b101110 <
1#
#1840
0#
#1860
b101111 <
b101 ;
1#
#1880
0#
#1900
b0 ;
0-
b110000 <
1#
#1920
0#
#1940
b110001 <
b1 ;
1#
#1960
0#
#1980
b10 ;
b110010 <
1#
#2000
0#
#2020
b110011 <
b11 ;
1#
#2040
0#
#2060
b100 ;
b110100 <
1#
#2080
0#
#2100
b110101 <
b101 ;
1#
#2120
0#
#2140
b0 ;
1-
b110110 <
1#
#2160
0#
#2180
b110111 <
b1 ;
1#
#2200
0#
#2220
b10 ;
b111000 <
1#
#2240
0#
#2260
b111001 <
b11 ;
1#
#2280
0#
#2300
b100 ;
b111010 <
1#
#2320
0#
#2340
b111011 <
b101 ;
1#
#2360
0#
#2380
b0 ;
0-
b111100 <
1#
#2400
0#
#2420
b111101 <
b1 ;
1#
#2440
0#
#2460
b10 ;
b111110 <
1#
#2480
0#
#2500
b111111 <
b11 ;
1#
#2520
0#
#2540
b100 ;
b1000000 <
1#
#2560
0#
#2580
b1000001 <
b101 ;
1#
#2600
0#
#2620
b0 ;
1-
b1000010 <
1#
#2640
0#
#2660
b1000011 <
b1 ;
1#
#2680
0#
#2700
b10 ;
b1000100 <
1#
#2720
0#
#2740
b1000101 <
b11 ;
1#
#2760
0#
#2780
b100 ;
b1000110 <
1#
#2800
0#
#2820
b1000111 <
b101 ;
1#
#2840
0#
#2860
b0 ;
0-
b1001000 <
1#
#2880
0#
#2900
b1001001 <
b1 ;
1#
#2920
0#
#2940
b10 ;
b1001010 <
1#
#2960
0#
#2980
b1001011 <
b11 ;
1#
#3000
0#
#3020
b100 ;
b1001100 <
1#
#3040
0#
#3060
b1001101 <
b101 ;
1#
#3080
0#
#3100
b0 ;
1-
b1001110 <
1#
#3120
0#
#3140
b1001111 <
b1 ;
1#
#3160
0#
#3180
b10 ;
b1010000 <
1#
#3200
0#
#3220
b1010001 <
b11 ;
1#
#3240
0#
#3260
b100 ;
b1010010 <
1#
#3280
0#
#3300
b1010011 <
b101 ;
1#
#3320
0#
#3340
b0 ;
0-
b1010100 <
1#
#3360
0#
#3380
b1010101 <
b1 ;
1#
#3400
0#
#3420
b10 ;
b1010110 <
1#
#3440
0#
#3460
b1010111 <
b11 ;
1#
#3480
0#
#3500
b100 ;
b1011000 <
1#
#3520
0#
#3540
b1011001 <
b101 ;
1#
#3560
0#
#3580
b0 ;
1-
b1011010 <
1#
#3600
0#
#3620
b1011011 <
b1 ;
1#
#3640
0#
#3660
b10 ;
b1011100 <
1#
#3680
0#
#3700
b1011101 <
b11 ;
1#
#3720
0#
#3740
b100 ;
b1011110 <
1#
#3760
0#
#3780
b1011111 <
b101 ;
1#
#3800
0#
#3820
b0 ;
0-
b1100000 <
1#
#3840
0#
#3860
b1100001 <
b1 ;
1#
#3880
0#
#3900
b10 ;
b1100010 <
1#
#3920
0#
#3940
b1100011 <
b11 ;
1#
#3960
0#
#3980
b100 ;
b1100100 <
1#
#4000
0#
#4020
b1100101 <
b101 ;
1#
#4040
0#
#4060
b0 ;
1-
b1100110 <
1#
#4080
0#
#4100
b1100111 <
b1 ;
1#
#4120
0#
#4140
b10 ;
b1101000 <
1#
#4160
0#
#4180
b1101001 <
b11 ;
1#
#4200
0#
#4220
b100 ;
b1101010 <
1#
#4240
0#
#4260
b1101011 <
b101 ;
1#
#4280
0#
#4300
b1 :
1/
b1 9
b0 ;
0-
b0 <
1,
1#
#4320
0#
#4340
b1 <
b1 ;
1#
#4360
0#
#4380
b10 ;
b10 <
1#
#4400
0#
#4420
b11 <
b11 ;
1#
#4440
0#
#4460
b100 ;
b100 <
1#
#4480
0#
#4500
b101 <
b101 ;
1#
#4520
0#
#4540
b0 ;
1-
b110 <
1#
#4560
0#
#4580
b111 <
b1 ;
1#
#4600
0#
#4620
b10 ;
b1000 <
1#
#4640
0#
#4660
b1001 <
b11 ;
1#
#4680
0#
#4700
b100 ;
b1010 <
1#
#4720
0#
#4740
b1011 <
b101 ;
1#
#4760
0#
#4780
b0 ;
0-
b1100 <
1#
#4800
0#
#4820
b1101 <
b1 ;
1#
#4840
0#
#4860
b10 ;
b1110 <
1#
#4880
0#
#4900
b1111 <
b11 ;
1#
#4920
0#
#4940
b100 ;
b10000 <
1#
#4960
0#
#4980
b10001 <
b101 ;
1#
#5000
0#
#5020
b0 ;
1-
b10010 <
1#
#5040
0#
#5060
b10011 <
b1 ;
1#
#5080
0#
#5100
b10 ;
b10100 <
1#
#5120
0#
#5140
b10101 <
b11 ;
1#
#5160
0#
#5180
b100 ;
b10110 <
1#
#5200
0#
#5220
b10111 <
b101 ;
1#
#5240
0#
#5260
b0 ;
0-
b11000 <
1#
#5280
0#
#5300
b11001 <
b1 ;
1#
#5320
0#
#5340
b10 ;
b11010 <
1#
#5360
0#
#5380
b11011 <
b11 ;
1#
#5400
0#
#5420
b100 ;
b11100 <
1#
#5440
0#
#5460
b11101 <
b101 ;
1#
#5480
0#
#5500
b0 ;
1-
b11110 <
1#
#5520
0#
#5540
b11111 <
b1 ;
1#
#5560
0#
#5580
b10 ;
b100000 <
1#
#5600
0#
#5620
b100001 <
b11 ;
1#
#5640
0#
#5660
b100 ;
b100010 <
1#
#5680
0#
#5700
b100011 <
b101 ;
1#
#5720
0#
#5740
b0 ;
0-
b100100 <
1#
#5760
0#
#5780
b100101 <
b1 ;
1#
#5800
0#
#5820
b10 ;
b100110 <
1#
#5840
0#
#5860
b100111 <
b11 ;
1#
#5880
0#
#5900
b100 ;
b101000 <
1#
#5920
0#
#5940
b101001 <
b101 ;
1#
#5960
0#
#5980
b0 ;
1-
b101010 <
1#
#6000
0#
#6020
b101011 <
b1 ;
1#
#6040
0#
#6060
b10 ;
b101100 <
1#
#6080
0#
#6100
b101101 <
b11 ;
1#
#6120
0#
#6140
b100 ;
b101110 <
1#
#6160
0#
#6180
b101111 <
b101 ;
1#
#6200
0#
#6220
b0 ;
0-
b110000 <
1#
#6240
0#
#6260
b110001 <
b1 ;
1#
#6280
0#
#6300
b10 ;
b110010 <
1#
#6320
0#
#6340
b110011 <
b11 ;
1#
#6360
0#
#6380
b100 ;
b110100 <
1#
#6400
0#
#6420
b110101 <
b101 ;
1#
#6440
0#
#6460
b0 ;
1-
b110110 <
1#
#6480
0#
#6500
b110111 <
b1 ;
1#
#6520
0#
#6540
b10 ;
b111000 <
1#
#6560
0#
#6580
b111001 <
b11 ;
1#
#6600
0#
#6620
b100 ;
b111010 <
1#
#6640
0#
#6660
b111011 <
b101 ;
1#
#6680
0#
#6700
b0 ;
0-
b111100 <
1#
#6720
0#
#6740
b111101 <
b1 ;
1#
#6760
0#
#6780
b10 ;
b111110 <
1#
#6800
0#
#6820
b111111 <
b11 ;
1#
#6840
0#
#6860
b100 ;
b1000000 <
1#
#6880
0#
#6900
b1000001 <
b101 ;
1#
#6920
0#
#6940
b0 ;
1-
b1000010 <
1#
#6960
0#
#6980
b1000011 <
b1 ;
1#
#7000
0#
#7020
b10 ;
b1000100 <
1#
#7040
0#
#7060
b1000101 <
b11 ;
1#
#7080
0#
#7100
b100 ;
b1000110 <
1#
#7120
0#
#7140
b1000111 <
b101 ;
1#
#7160
0#
#7180
b0 ;
0-
b1001000 <
1#
#7200
0#
#7220
b1001001 <
b1 ;
1#
#7240
0#
#7260
b10 ;
b1001010 <
1#
#7280
0#
#7300
b1001011 <
b11 ;
1#
#7320
0#
#7340
b100 ;
b1001100 <
1#
#7360
0#
#7380
b1001101 <
b101 ;
1#
#7400
0#
#7420
b0 ;
1-
b1001110 <
1#
#7440
0#
#7460
b1001111 <
b1 ;
1#
#7480
0#
#7500
b10 ;
b1010000 <
1#
#7520
0#
#7540
b1010001 <
b11 ;
1#
#7560
0#
#7580
b100 ;
b1010010 <
1#
#7600
0#
#7620
b1010011 <
b101 ;
1#
#7640
0#
#7660
b0 ;
0-
b1010100 <
1#
#7680
0#
#7700
b1010101 <
b1 ;
1#
#7720
0#
#7740
b10 ;
b1010110 <
1#
#7760
0#
#7780
b1010111 <
b11 ;
1#
#7800
0#
#7820
b100 ;
b1011000 <
1#
#7840
0#
#7860
b1011001 <
b101 ;
1#
#7880
0#
#7900
b0 ;
1-
b1011010 <
1#
#7920
0#
#7940
b1011011 <
b1 ;
1#
#7960
0#
#7980
b10 ;
b1011100 <
1#
#8000
0#
#8020
b1011101 <
b11 ;
1#
#8040
0#
#8060
b100 ;
b1011110 <
1#
#8080
0#
#8100
b1011111 <
b101 ;
1#
#8120
0#
#8140
b0 ;
0-
b1100000 <
1#
#8160
0#
#8180
b1100001 <
b1 ;
1#
#8200
0#
#8220
b10 ;
b1100010 <
1#
#8240
0#
#8260
b1100011 <
b11 ;
1#
#8280
0#
#8300
b100 ;
b1100100 <
1#
#8320
0#
#8340
b1100101 <
b101 ;
1#
#8360
0#
#8380
b0 ;
1-
b1100110 <
1#
#8400
0#
#8420
b1100111 <
b1 ;
1#
#8440
0#
#8460
b10 ;
b1101000 <
1#
#8480
0#
#8500
b1101001 <
b11 ;
1#
#8520
0#
#8540
b100 ;
b1101010 <
1#
#8560
0#
#8580
b1101011 <
b101 ;
1#
#8600
0#
#8620
b0 ;
0-
b0 <
0,
1#
#8640
0#
#8660
b1 <
b1 ;
1#
#8680
0#
#8700
b10 ;
b10 <
1#
#8720
0#
#8740
b11 <
b11 ;
1#
#8760
0#
#8780
b100 ;
b100 <
1#
#8800
0#
#8820
b101 <
b101 ;
1#
#8840
0#
#8860
b0 ;
1-
b110 <
1#
#8880
0#
#8900
b111 <
b1 ;
1#
#8920
0#
#8940
b10 ;
b1000 <
1#
#8960
0#
#8980
b1001 <
b11 ;
1#
#9000
0#
#9020
b100 ;
b1010 <
1#
#9040
0#
#9060
b1011 <
b101 ;
1#
#9080
0#
#9100
b0 ;
0-
b1100 <
1#
#9120
0#
#9140
b1101 <
b1 ;
1#
#9160
0#
#9180
b10 ;
b1110 <
1#
#9200
0#
#9220
b1111 <
b11 ;
1#
#9240
0#
#9260
b100 ;
b10000 <
1#
#9280
0#
#9300
b10001 <
b101 ;
1#
#9320
0#
#9340
b0 ;
1-
b10010 <
1#
#9360
0#
#9380
b10011 <
b1 ;
1#
#9400
0#
#9420
b10 ;
b10100 <
1#
#9440
0#
#9460
b10101 <
b11 ;
1#
#9480
0#
#9500
b100 ;
b10110 <
1#
#9520
0#
#9540
b10111 <
b101 ;
1#
#9560
0#
#9580
b0 ;
0-
b11000 <
1#
#9600
0#
#9620
b11001 <
b1 ;
1#
#9640
0#
#9660
b10 ;
b11010 <
1#
#9680
0#
#9700
b11011 <
b11 ;
1#
#9720
0#
#9740
b100 ;
b11100 <
1#
#9760
0#
#9780
b11101 <
b101 ;
1#
#9800
0#
#9820
b0 ;
1-
b11110 <
1#
#9840
0#
#9860
b11111 <
b1 ;
1#
#9880
0#
#9900
b10 ;
b100000 <
1#
#9920
0#
#9940
b100001 <
b11 ;
1#
#9960
0#
#9980
b100 ;
b100010 <
1#
#10000
0#
#10020
b100011 <
b101 ;
1#
#10040
0#
#10060
b0 ;
0-
b100100 <
1#
#10080
0#
#10100
b100101 <
b1 ;
1#
#10120
0#
#10140
b10 ;
b100110 <
1#
#10160
0#
#10180
b100111 <
b11 ;
1#
#10200
0#
#10220
b100 ;
b101000 <
1#
#10240
0#
#10260
b101001 <
b101 ;
1#
#10280
0#
#10300
b0 ;
1-
b101010 <
1#
#10320
0#
#10340
b101011 <
b1 ;
1#
#10360
0#
#10380
b10 ;
b101100 <
1#
#10400
0#
#10420
b101101 <
b11 ;
1#
#10440
0#
#10460
b100 ;
b101110 <
1#
#10480
0#
#10500
b101111 <
b101 ;
1#
#10520
0#
#10540
b0 ;
0-
b110000 <
1#
#10560
0#
#10580
b110001 <
b1 ;
1#
#10600
0#
#10620
b10 ;
b110010 <
1#
#10640
0#
#10660
b110011 <
b11 ;
1#
#10680
0#
#10700
b100 ;
b110100 <
1#
#10720
0#
#10740
b110101 <
b101 ;
1#
#10760
0#
#10780
b0 ;
1-
b110110 <
1#
#10800
0#
#10820
b110111 <
b1 ;
1#
#10840
0#
#10860
b10 ;
b111000 <
1#
#10880
0#
#10900
b111001 <
b11 ;
1#
#10920
0#
#10940
b100 ;
b111010 <
1#
#10960
0#
#10980
b111011 <
b101 ;
1#
#11000
0#
#11020
b0 ;
0-
b111100 <
1#
#11040
0#
#11060
b111101 <
b1 ;
1#
#11080
0#
#11100
b10 ;
b111110 <
1#
#11120
0#
#11140
b111111 <
b11 ;
1#
#11160
0#
#11180
b100 ;
b1000000 <
1#
#11200
0#
#11220
b1000001 <
b101 ;
1#
#11240
0#
#11260
b0 ;
1-
b1000010 <
1#
#11280
0#
#11300
b1000011 <
b1 ;
1#
#11320
0#
#11340
b10 ;
b1000100 <
1#
#11360
0#
#11380
b1000101 <
b11 ;
1#
#11400
0#
#11420
b100 ;
b1000110 <
1#
#11440
0#
#11460
b1000111 <
b101 ;
1#
#11480
0#
#11500
b0 ;
0-
b1001000 <
1#
#11520
0#
#11540
b1001001 <
b1 ;
1#
#11560
0#
#11580
b10 ;
b1001010 <
1#
#11600
0#
#11620
b1001011 <
b11 ;
1#
#11640
0#
#11660
b100 ;
b1001100 <
1#
#11680
0#
#11700
b1001101 <
b101 ;
1#
#11720
0#
#11740
b0 ;
1-
b1001110 <
1#
#11760
0#
#11780
b1001111 <
b1 ;
1#
#11800
0#
#11820
b10 ;
b1010000 <
1#
#11840
0#
#11860
b1010001 <
b11 ;
1#
#11880
0#
#11900
b100 ;
b1010010 <
1#
#11920
0#
#11940
b1010011 <
b101 ;
1#
#11960
0#
#11980
b0 ;
0-
b1010100 <
1#
#12000
0#
#12020
b1010101 <
b1 ;
1#
#12040
0#
#12060
b10 ;
b1010110 <
1#
#12080
0#
#12100
b1010111 <
b11 ;
1#
#12120
0#
#12140
b100 ;
b1011000 <
1#
#12160
0#
#12180
b1011001 <
b101 ;
1#
#12200
0#
#12220
b0 ;
1-
b1011010 <
1#
#12240
0#
#12260
b1011011 <
b1 ;
1#
#12280
0#
#12300
b10 ;
b1011100 <
1#
#12320
0#
#12340
b1011101 <
b11 ;
1#
#12360
0#
#12380
b100 ;
b1011110 <
1#
#12400
0#
#12420
b1011111 <
b101 ;
1#
#12440
0#
#12460
b0 ;
0-
b1100000 <
1#
#12480
0#
#12500
b1100001 <
b1 ;
1#
#12520
0#
#12540
b10 ;
b1100010 <
1#
#12560
0#
#12580
b1100011 <
b11 ;
1#
#12600
0#
#12620
b100 ;
b1100100 <
1#
#12640
0#
#12660
b1100101 <
b101 ;
1#
#12680
0#
#12700
b0 ;
1-
b1100110 <
1#
#12720
0#
#12740
b1100111 <
b1 ;
1#
#12760
0#
#12780
b10 ;
b1101000 <
1#
#12800
0#
#12820
b1101001 <
b11 ;
1#
#12840
0#
#12860
b100 ;
b1101010 <
1#
#12880
0#
#12900
b1101011 <
b101 ;
1#
#12920
0#
#12940
b10 9
0*
0+
07
b0 ;
0-
b0 <
1,
1#
#12960
0#
#12980
b1 <
b1 ;
1#
#13000
0#
#13020
b10 ;
b10 <
1#
#13040
0#
#13060
b11 <
b11 ;
1#
#13080
0#
#13100
b100 ;
b100 <
1#
#13120
0#
#13140
b101 <
b101 ;
1#
#13160
0#
#13180
b1 5
b0 ;
1-
b110 <
1#
#13200
0#
#13220
b111 <
b1 ;
1#
#13240
0#
#13260
b10 ;
b1000 <
1#
#13280
0#
#13300
b1001 <
b11 ;
1#
#13320
0#
#13340
b100 ;
b1010 <
1#
#13360
0#
#13380
b1011 <
b101 ;
1#
#13400
0#
#13420
b0 ;
0-
b1100 <
1#
#13440
0#
#13460
b1101 <
b1 ;
1#
#13480
0#
#13500
b10 ;
b1110 <
1#
#13520
0#
#13540
b1111 <
b11 ;
1#
#13560
0#
#13580
b100 ;
b10000 <
1#
#13600
0#
#13620
b10001 <
b101 ;
1#
#13640
0#
#13660
b1 3
b0 ;
1-
b10010 <
1#
#13680
0#
#13700
b10011 <
b1 ;
1#
#13720
0#
#13740
b10 ;
b10100 <
1#
#13760
0#
#13780
b10101 <
b11 ;
1#
#13800
0#
#13820
b100 ;
b10110 <
1#
#13840
0#
#13860
b10111 <
b101 ;
1#
#13880
0#
#13900
b0 ;
0-
b11000 <
1#
#13920
0#
#13940
b11001 <
b1 ;
1#
#13960
0#
#13980
b10 ;
b11010 <
1#
#14000
0#
#14020
b11011 <
b11 ;
1#
#14040
0#
#14060
b100 ;
b11100 <
1#
#14080
0#
#14100
b11101 <
b101 ;
1#
#14120
0#
#14140
b10 3
b0 ;
1-
b11110 <
1#
#14160
0#
#14180
b11111 <
b1 ;
1#
#14200
0#
#14220
b10 ;
b100000 <
1#
#14240
0#
#14260
b100001 <
b11 ;
1#
#14280
0#
#14300
b100 ;
b100010 <
1#
#14320
0#
#14340
b100011 <
b101 ;
1#
#14360
0#
#14380
b0 ;
0-
b100100 <
1#
#14400
0#
#14420
b100101 <
b1 ;
1#
#14440
0#
#14460
b10 ;
b100110 <
1#
#14480
0#
#14500
b100111 <
b11 ;
1#
#14520
0#
#14540
b100 ;
b101000 <
1#
#14560
0#
#14580
b101001 <
b101 ;
1#
#14600
0#
#14620
b11 3
b0 ;
1-
b101010 <
1#
#14640
0#
#14660
b101011 <
b1 ;
1#
#14680
0#
#14700
b10 ;
b101100 <
1#
#14720
0#
#14740
b101101 <
b11 ;
1#
#14760
0#
#14780
b100 ;
b101110 <
1#
#14800
0#
#14820
b101111 <
b101 ;
1#
#14840
0#
#14860
b0 ;
0-
b110000 <
1#
#14880
0#
#14900
b110001 <
b1 ;
1#
#14920
0#
#14940
b10 ;
b110010 <
1#
#14960
0#
#14980
b110011 <
b11 ;
1#
#15000
0#
#15020
b100 ;
b110100 <
1#
#15040
0#
#15060
b110101 <
b101 ;
1#
#15080
0#
#15100
b100 3
b0 ;
1-
b110110 <
1#
#15120
0#
#15140
b110111 <
b1 ;
1#
#15160
0#
#15180
b10 ;
b111000 <
1#
#15200
0#
#15220
b111001 <
b11 ;
1#
#15240
0#
#15260
b100 ;
b111010 <
1#
#15280
0#
#15300
b111011 <
b101 ;
1#
#15320
0#
#15340
b0 ;
0-
b111100 <
1#
#15360
0#
#15380
b111101 <
b1 ;
1#
#15400
0#
#15420
b10 ;
b111110 <
1#
#15440
0#
#15460
b111111 <
b11 ;
1#
#15480
0#
#15500
b100 ;
b1000000 <
1#
#15520
0#
#15540
b1000001 <
b101 ;
1#
#15560
0#
#15580
b101 3
b0 ;
1-
b1000010 <
1#
#15600
0#
#15620
b1000011 <
b1 ;
1#
#15640
0#
#15660
b10 ;
b1000100 <
1#
#15680
0#
#15700
b1000101 <
b11 ;
1#
#15720
0#
#15740
b100 ;
b1000110 <
1#
#15760
0#
#15780
b1000111 <
b101 ;
1#
#15800
0#
#15820
b0 ;
0-
b1001000 <
1#
#15840
0#
#15860
b1001001 <
b1 ;
1#
#15880
0#
#15900
b10 ;
b1001010 <
1#
#15920
0#
#15940
b1001011 <
b11 ;
1#
#15960
0#
#15980
b100 ;
b1001100 <
1#
#16000
0#
#16020
b1001101 <
b101 ;
1#
#16040
0#
#16060
b110 3
b0 ;
1-
b1001110 <
1#
#16080
0#
#16100
b1001111 <
b1 ;
1#
#16120
0#
#16140
b10 ;
b1010000 <
1#
#16160
0#
#16180
b1010001 <
b11 ;
1#
#16200
0#
#16220
b100 ;
b1010010 <
1#
#16240
0#
#16260
b1010011 <
b101 ;
1#
#16280
0#
#16300
b0 ;
0-
b1010100 <
1#
#16320
0#
#16340
b1010101 <
b1 ;
1#
#16360
0#
#16380
b10 ;
b1010110 <
1#
#16400
0#
#16420
b1010111 <
b11 ;
1#
#16440
0#
#16460
b100 ;
b1011000 <
1#
#16480
0#
#16500
b1011001 <
b101 ;
1#
#16520
0#
#16540
b111 3
b0 ;
1-
b1011010 <
1#
#16560
0#
#16580
b1011011 <
b1 ;
1#
#16600
0#
#16620
b10 ;
b1011100 <
1#
#16640
0#
#16660
b1011101 <
b11 ;
1#
#16680
0#
#16700
b100 ;
b1011110 <
1#
#16720
0#
#16740
b1011111 <
b101 ;
1#
#16760
0#
#16780
b0 ;
0-
b1100000 <
1#
#16800
0#
#16820
b1100001 <
b1 ;
1#
#16840
0#
#16860
b10 ;
b1100010 <
1#
#16880
0#
#16900
b1100011 <
b11 ;
1#
#16920
0#
#16940
b100 ;
b1100100 <
1#
#16960
0#
#16980
b1100101 <
b101 ;
1#
#17000
0#
#17020
b1000 3
b0 ;
1-
b1100110 <
1#
#17040
0#
#17060
b1100111 <
b1 ;
1#
#17080
0#
#17100
b10 ;
b1101000 <
1#
#17120
0#
#17140
b1101001 <
b11 ;
1#
#17160
0#
#17180
b100 ;
b1101010 <
1#
#17200
0#
#17220
b1101011 <
b101 ;
1#
#17240
0#
#17260
b0 ;
0-
b0 <
0,
1#
#17280
0#
#17300
b1 <
b1 ;
1#
#17320
0#
#17340
b10 ;
b10 <
1#
#17360
0#
#17380
b11 <
b11 ;
1#
#17400
0#
#17420
b100 ;
b100 <
1#
#17440
0#
#17460
b101 <
b101 ;
1#
#17480
0#
#17500
b0 3
b10 5
b0 ;
1-
b110 <
1#
#17520
0#
#17540
b111 <
b1 ;
1#
#17560
0#
#17580
b10 ;
b1000 <
1#
#17600
0#
#17620
b1001 <
b11 ;
1#
#17640
0#
#17660
b100 ;
b1010 <
1#
#17680
0#
#17700
b1011 <
b101 ;
1#
#17720
0#
#17740
b0 ;
0-
b1100 <
1#
#17760
0#
#17780
b1101 <
b1 ;
1#
#17800
0#
#17820
b10 ;
b1110 <
1#
#17840
0#
#17860
b1111 <
b11 ;
1#
#17880
0#
#17900
b100 ;
b10000 <
1#
#17920
0#
#17940
b10001 <
b101 ;
1#
#17960
0#
#17980
b1 3
b0 ;
1-
b10010 <
1#
#18000
0#
#18020
b10011 <
b1 ;
1#
#18040
0#
#18060
b10 ;
b10100 <
1#
#18080
0#
#18100
b10101 <
b11 ;
1#
#18120
0#
#18140
b100 ;
b10110 <
1#
#18160
0#
#18180
b10111 <
b101 ;
1#
#18200
0#
#18220
b0 ;
0-
b11000 <
1#
#18240
0#
#18260
b11001 <
b1 ;
1#
#18280
0#
#18300
b10 ;
b11010 <
1#
#18320
0#
#18340
b11011 <
b11 ;
1#
#18360
0#
#18380
b100 ;
b11100 <
1#
#18400
0#
#18420
b11101 <
b101 ;
1#
#18440
0#
#18460
b10 3
b0 ;
1-
b11110 <
1#
#18480
0#
#18500
b11111 <
b1 ;
1#
#18520
0#
#18540
b10 ;
b100000 <
1#
#18560
0#
#18580
b100001 <
b11 ;
1#
#18600
0#
#18620
b100 ;
b100010 <
1#
#18640
0#
#18660
b100011 <
b101 ;
1#
#18680
0#
#18700
b0 ;
0-
b100100 <
1#
#18720
0#
#18740
b100101 <
b1 ;
1#
#18760
0#
#18780
b10 ;
b100110 <
1#
#18800
0#
#18820
b100111 <
b11 ;
1#
#18840
0#
#18860
b100 ;
b101000 <
1#
#18880
0#
#18900
b101001 <
b101 ;
1#
#18920
0#
#18940
b11 3
b0 ;
1-
b101010 <
1#
#18960
0#
#18980
b101011 <
b1 ;
1#
#19000
0#
#19020
b10 ;
b101100 <
1#
#19040
0#
#19060
b101101 <
b11 ;
1#
#19080
0#
#19100
b100 ;
b101110 <
1#
#19120
0#
#19140
b101111 <
b101 ;
1#
#19160
0#
#19180
b0 ;
0-
b110000 <
1#
#19200
0#
#19220
b110001 <
b1 ;
1#
#19240
0#
#19260
b10 ;
b110010 <
1#
#19280
0#
#19300
b110011 <
b11 ;
1#
#19320
0#
#19340
b100 ;
b110100 <
1#
#19360
0#
#19380
b110101 <
b101 ;
1#
#19400
0#
#19420
b100 3
b0 ;
1-
b110110 <
1#
#19440
0#
#19460
b110111 <
b1 ;
1#
#19480
0#
#19500
b10 ;
b111000 <
1#
#19520
0#
#19540
b111001 <
b11 ;
1#
#19560
0#
#19580
b100 ;
b111010 <
1#
#19600
0#
#19620
b111011 <
b101 ;
1#
#19640
0#
#19660
b0 ;
0-
b111100 <
1#
#19680
0#
#19700
b111101 <
b1 ;
1#
#19720
0#
#19740
b10 ;
b111110 <
1#
#19760
0#
#19780
b111111 <
b11 ;
1#
#19800
0#
#19820
b100 ;
b1000000 <
1#
#19840
0#
#19860
b1000001 <
b101 ;
1#
#19880
0#
#19900
b101 3
b0 ;
1-
b1000010 <
1#
#19920
0#
#19940
b1000011 <
b1 ;
1#
#19960
0#
#19980
b10 ;
b1000100 <
1#
#20000
0#
#20020
b1000101 <
b11 ;
1#
#20040
0#
#20060
b100 ;
b1000110 <
1#
#20080
0#
#20100
b1000111 <
b101 ;
1#
#20120
0#
#20140
b0 ;
0-
b1001000 <
1#
#20160
0#
#20180
b1001001 <
b1 ;
1#
#20200
0#
#20220
b10 ;
b1001010 <
1#
#20240
0#
#20260
b1001011 <
b11 ;
1#
#20280
0#
#20300
b100 ;
b1001100 <
1#
#20320
0#
#20340
b1001101 <
b101 ;
1#
#20360
0#
#20380
b110 3
b0 ;
1-
b1001110 <
1#
#20400
0#
#20420
b1001111 <
b1 ;
1#
